<svg id="Groupe_20" data-name="Groupe 20" xmlns="http://www.w3.org/2000/svg" xmlns:xlink="http://www.w3.org/1999/xlink" width="172.115" height="119.812" viewBox="0 0 172.115 119.812">
  <defs>
    <clipPath id="clip-path">
      <rect id="Rectangle_135" data-name="Rectangle 135" width="172.115" height="119.812" fill="#142639"/>
    </clipPath>
  </defs>
  <g id="Groupe_19" data-name="Groupe 19" transform="translate(0 0)" clip-path="url(#clip-path)">
    <path id="Tracé_25" data-name="Tracé 25" d="M170.346,41.953a4.025,4.025,0,0,1-1.756,1.408c-.936.31-1.677.974-3,.974a10.184,10.184,0,0,1-3.508-.7c-.548-.158-.858-.7-1.716-.7.116-.078.231-.195.349-.195a5.29,5.29,0,0,1,.2-1.174c-.624-.153-1.287.238-1.679-.153a7.82,7.82,0,0,0,2.03-.351.358.358,0,0,1-.158-.313c-.465,0-1.911-.428-1.988-.858a.892.892,0,0,1,.782.076v-.308c.312,0,.39-.433.7-.433h.314c.039.237.193.35.233.591-.04.27.312.78.585.78s.506-.2.7-.239c-.078-.271-.117-.349,0-.5.155.156.273.351.506.351l.937-.237a1.8,1.8,0,0,1,.549.276,1.213,1.213,0,0,1,0-.39c.583,0,.892.114,1.245.114.506,0,.976-.465,1.325-.114a1.041,1.041,0,0,1,.157-.583c.273.074.273.115.428,0,0,.465.314.5.7.5.35,0,.583-.2.934-.2a.548.548,0,0,0-.233.355c0,1.131,1.445.857,1.445,1.948Z" transform="translate(0.521 0.128)" fill="#142639"/>
    <path id="Tracé_26" data-name="Tracé 26" d="M103.289,104.581c-.273.469-1.015.469-1.483.469-.9,0-1.52-.273-2.26-.273v-.235a.417.417,0,0,0,.39-.35c-.587-.27-1.211-.233-1.325-.821-.317,0-.275-.272-.43-.348-.309-.156-.509-.038-.82-.038-.545,0-.82-.586-1.367-.586H94.865c-.235-.157-.2-.312-.077-.429-.158-.158-.353-.119-.549-.119a3.875,3.875,0,0,0-2.184.94H91.7a3.254,3.254,0,0,1,3.2-1.72c1.714,0,2.534.976,3.819.976.274,0,.588.392.666.469a3.665,3.665,0,0,0,2.415.976c0,.079-.038.2,0,.271l.587.04c.427.119.623.663.9.779" transform="translate(0.3 0.331)" fill="#142639"/>
    <path id="Tracé_27" data-name="Tracé 27" d="M93.845,102.589a1.017,1.017,0,0,1,0,.587c-.037,0-.545.075-.545,0a.342.342,0,0,1,.349-.352v-.275h.078Z" transform="translate(0.305 0.336)" fill="#142639"/>
    <path id="Tracé_28" data-name="Tracé 28" d="M100.651,106.71a.462.462,0,0,1,.352.351,7.393,7.393,0,0,1-1.29.236.632.632,0,0,1-.619-.587c0-.157.231-.233.389-.233a4.1,4.1,0,0,1,1.248.312Z" transform="translate(0.324 0.349)" fill="#142639"/>
    <path id="Tracé_29" data-name="Tracé 29" d="M108.905,105.74a4.546,4.546,0,0,1,1.053.86h-1.444c-.27.155-.426.311-.7.311-.234,0-.195-.2-.39-.2-.506,0-.467.7-.9.7-.351,0-.275-.387-.469-.508a4.337,4.337,0,0,0-1.757-.116c-.27,0-.27.116-.467,0,0,.116-.038.194-.038.31a.722.722,0,0,1-.47-.622c.079,0,.157-.118.2-.159.9,0,1.289.2,1.754-.035a1.056,1.056,0,0,1-.272-.818.514.514,0,0,1-.508-.433c0-.116.2-.273.315-.273.349,0,.583.273.935.273.5,0,.742-.156,1.17-.156,1.246,0,1.482.664,2.185,1.016Z" transform="translate(0.338 0.343)" fill="#142639"/>
    <path id="Tracé_30" data-name="Tracé 30" d="M98.9,98.934a.484.484,0,0,1,.428.545.25.25,0,0,1-.2.2c-.388,0-.388-.428-.388-.741,0-.037.117,0,.156,0" transform="translate(0.323 0.324)" fill="#142639"/>
    <path id="Tracé_31" data-name="Tracé 31" d="M98.159,97.032a.711.711,0,0,1,.546-.315.551.551,0,0,1,.471.315,8.686,8.686,0,0,1-1.016,0" transform="translate(0.321 0.317)" fill="#142639"/>
    <path id="Tracé_32" data-name="Tracé 32" d="M100.1,97.5c-.115.039-.232-.2-.193-.313Z" transform="translate(0.327 0.318)" fill="#142639"/>
    <path id="Tracé_33" data-name="Tracé 33" d="M72.1,33.266c-.313,0-.509.116-.509.39,0,.313.43.313.586.313a.749.749,0,0,0,.389.544c-.35.74-1.246.7-2.222.7-1.521,0-2.068-1.168-3.2-1.168-.7,0-.425.425-1.012.7-1.012.506-1.989.2-2.808.783h-3.51c-.663,0-.234-.627-.7-.978-.43-.312-1.6-.193-2.146-.193-.859,0-1.56-.9-1.836-1.365a6.035,6.035,0,0,1,3.784-.9,12.051,12.051,0,0,0,1.288-.077,1.979,1.979,0,0,0-.976-.391H57.16c-.858,0-3,.391-3-.7,0-.858,1.133-.548,1.56-.818a4.061,4.061,0,0,0-1.367-.04,1.7,1.7,0,0,1-1.17-.781c0-1.91,3.553-3.315,4.955-3.315.547,0,.508,1.132.661,1.365.316-.193.589-.7,1.211-.7A1.614,1.614,0,0,1,61.762,27.8c.429-.079.74-.156,1.17-.271a2.606,2.606,0,0,0-.2-.705h.858a2.281,2.281,0,0,1,1.288,1.093c.236.47-.039,1.444.665,1.444.31,0,.31-.158.5-.309a10.951,10.951,0,0,1-.9-2.694c0-.313.393-.508.7-.508.7,0,.468.31,1.092,0a1.459,1.459,0,0,1-.035-.388c0-.392.542-.664,1.167-.664.7,0,1.364.272,1.364.856s-.858.939-.858,1.29c0,1.4,1.054,2.3,1.054,3.314,0,1.248,3.275,2.1,4.018,2.692-.7.467-.863.312-1.562.312" transform="translate(0.174 0.081)" fill="#142639"/>
    <path id="Tracé_34" data-name="Tracé 34" d="M48.135,30.267c-.2,0-.468-.584-.585-.78-.314-.426-1.87-.312-1.87-.78,0-1.326,1.948-2.418,1.948-3.824,0-.311-.546-.934-.587-1.362.976-.39,1.407,0,2.341,0,.468,0,.86-.469,1.563-.275.855.235,1.246.7,2.1.781.351.352.819-.117,1.324-.117.821,0,2.733.78,2.733,1.68,0,.426-2.067.739-2.457.856-1.21.388-2.926,2.025-2.926,2.924,0,.314-2.691,1.289-3,1.289-.273,0-.389-.391-.586-.391" transform="translate(0.15 0.076)" fill="#142639"/>
    <path id="Tracé_35" data-name="Tracé 35" d="M59.419,23.539c-.471,0-1.1-.352-1.1-.587,0-.584.587-.466,1.1-.466-.237-.314-.588-.511-.665-.9a.538.538,0,0,0-.431.509c-.661.076-1.168.272-1.636.272-.507,0-1.092-.272-1.364-.272a.6.6,0,0,1-.586-.586c0-.392.156-.314,0-.585.389-.078.586-.388.976-.388.781,0,1.168.349,1.755.388a7.015,7.015,0,0,1-1.755-.509v-.583a3.478,3.478,0,0,1,.664,0c.154,0,1.363.233,1.754.274a5.732,5.732,0,0,1-1.95-.433,1,1,0,0,1,.782-.428c.506,0,.622.16.975.119-.47.04-1.171-.04-1.171-.51a4.635,4.635,0,0,1,1.285,0,.674.674,0,0,1,.663.589h.9c1.174,0,1.99,1.481,3.707,1.481a.776.776,0,0,0,.859-.509A1.7,1.7,0,0,1,63.4,20.3c.036-.079.27-.157.387-.157v-.51c-.273-.037-.976-.23-.976-.581,0-.627,1.015-.938,1.407-1.249a1.319,1.319,0,0,0,.74.273,1.956,1.956,0,0,0,0,.509,1.7,1.7,0,0,0,1.484,1.44c.349,0,.544-.465,1.05-.465a1.007,1.007,0,0,1,.9.975A3.215,3.215,0,0,1,67.1,22.368c-.235.077-2.535-.2-2.535-.079,0,.079-2.5.627-2.613.663a6.553,6.553,0,0,1-2.532.587" transform="translate(0.179 0.058)" fill="#142639"/>
    <path id="Tracé_36" data-name="Tracé 36" d="M53.458,21.189c-.313,0-.664-.192-.664-.466,0-.623,1.443-.935,1.833-.9-.078.544-.665,1.362-1.169,1.362" transform="translate(0.173 0.065)" fill="#142639"/>
    <path id="Tracé_37" data-name="Tracé 37" d="M58.238,18.39a.512.512,0,0,1-.508-.506H59.1v.506Z" transform="translate(0.189 0.059)" fill="#142639"/>
    <path id="Tracé_38" data-name="Tracé 38" d="M56.705,16.794a.7.7,0,0,1-.507.624c.038.392.313.471.313.782l-1.675,1.249c-.665,0-.627-.9-.979-1.093a1.32,1.32,0,0,1-1.326,1.21c-.075.425-.388.856-.818.856-.311,0-.586-.43-.662-.583-.47.232-.7,0-1.093,0-.236,0-.352.274-.664.311-.077-.275-.391-.472-.391-.584a4.109,4.109,0,0,1,.862-.705c.622-.31,1.209-.391,1.87-.778.742-.431.935-1.445,2.029-1.445a4.646,4.646,0,0,1,.7.08s2.343-.623,2.343.075" transform="translate(0.16 0.054)" fill="#142639"/>
    <path id="Tracé_39" data-name="Tracé 39" d="M61.039,14.7c-.468,0-.582-.312-.974-.312-.311,0-.469.272-.78.312,0-.508,2.341-1.366,2.847-1.366a1.7,1.7,0,0,1,1.637.975,2.105,2.105,0,0,1-1.053.391Z" transform="translate(0.194 0.044)" fill="#142639"/>
    <path id="Tracé_40" data-name="Tracé 40" d="M62.716,15.748c.077.817-1.211,1.167-2.066,1.167A1.48,1.48,0,0,1,59.4,15.863c0-.9,2.377-.973,3.2-.973a.776.776,0,0,1,.7.388,2.737,2.737,0,0,1-1.676.47Z" transform="translate(0.194 0.049)" fill="#142639"/>
    <path id="Tracé_41" data-name="Tracé 41" d="M58.861,15.67c-.157.232-.274.464-.548.464-.349,0-.777-.385-.777-.58,0-.976,1.092,0,1.324.116" transform="translate(0.188 0.049)" fill="#142639"/>
    <path id="Tracé_42" data-name="Tracé 42" d="M77.769,26.752c0,.545-.113.2-.113.585.152.039.661.118.894.2-.187,2.126-.311,1.554-1.56,2.025-.352.12-.43.584-.781.584-.546,0-.623-.425-.858-.66-1.092-1.093-2.3-.938-3.431-2.067v-.663c.5,0,1.092.469,1.757.469h.583V26.164c-.509-.075-1.248,0-1.248-.507,0-.115.233-.192.272-.312.626-.622,1.483-.468,2.341-.468h1.561c.115,0,.389.2.389.389,0,.782-.974,1.094-1.248,1.446.311-.038,1.443-.389,1.443.039" transform="translate(0.235 0.081)" fill="#142639"/>
    <path id="Tracé_43" data-name="Tracé 43" d="M69.9,19.244a1.141,1.141,0,0,1-.392-.782h.47c1.13,0,1.715,1.993,2.926,1.643a3.6,3.6,0,0,1-.781-.663v-.47c.858,0,1.17.859,2.146.859v-.859c-.662,0-1.21,0-1.365-.548a1.466,1.466,0,0,1,.7-.038c.622,0,1.01.391,1.753.391.313,0,.469-.316.781-.316.7,0,.782.391.782.98,0,.893-.471,1.361-.312,2.457a5.828,5.828,0,0,1-1.561.194c-.235,0-1.249.158-1.249-.194a.473.473,0,0,1,.272-.391.724.724,0,0,1,0-.392c0-.35.742-.35.977-.581a.909.909,0,0,0-.468-.12c-.7,0-2.069.389-2.848.389a.474.474,0,0,1-.468-.469h-.585l-.117-.386c-.39.114-.662-.156-.974-.39v-.705Z" transform="translate(0.228 0.06)" fill="#142639"/>
    <path id="Tracé_44" data-name="Tracé 44" d="M78.539,35.771a15.422,15.422,0,0,1-3.4-1.17c0-.312.7-.155.863-.192.464-.16.308-1.251,1.09-1.251a5.16,5.16,0,0,1,2.417,1.993c-.39.231-.548.62-.974.62" transform="translate(0.246 0.109)" fill="#142639"/>
    <path id="Tracé_45" data-name="Tracé 45" d="M85.077,25a4.561,4.561,0,0,1-.7.591c-.512.7-1.053,1.56-2.225,1.56-.859,0-.859-.511-1.095.271h.508c-.115.7-.427.821-.9,1.287h-.78a9.044,9.044,0,0,1,.038-1.169c-.621-.627-.348-1.094-.621-1.876V25H80.2c-.079-.036,0-.27,0-.385a1.021,1.021,0,0,1,1.052-.587c1.327,0,2.419.468,3.822.468a2.176,2.176,0,0,0,0,.5" transform="translate(0.26 0.079)" fill="#142639"/>
    <path id="Tracé_46" data-name="Tracé 46" d="M69.552,16.838a.545.545,0,0,1-.547.464c-.426,0-1.364-1.051-1.364-1.556,1.014,0,1.094.818,1.911,1.093" transform="translate(0.221 0.052)" fill="#142639"/>
    <path id="Tracé_47" data-name="Tracé 47" d="M69.9,20.994c.077.192.272.311.272.583,0,.468-.352.509-.584.509a5.805,5.805,0,0,0-.781-.041c.154-.662.545-.859,1.093-1.05" transform="translate(0.225 0.069)" fill="#142639"/>
    <path id="Tracé_48" data-name="Tracé 48" d="M72.907,14.7a14.116,14.116,0,0,0-1.834-.154c-.194-.354-.7-.159-1.285-.159-.548,0-.7.039-1.054-.311.351-.352.7-.313,1.171-.469a.488.488,0,0,1,0-.47c-.857,0-1.054.236-1.365,0a.712.712,0,0,0,.273-.389c-.548,0-.664-.117-.664-.587a7.573,7.573,0,0,1,1.249-.31c.819,0,1.014.7,1.483.7.311,0,.468-.313.778-.313.78,0,.743.9,1.171.9.235,0,.35-.31.587-.31.546,0,.972.7,1.17.9-.078.116-.236.273-.313.39.313.312,1.092.623,1.092,1.051,0,.392-.389.51-.7.51-.936,0-.858-.976-1.754-.976" transform="translate(0.223 0.039)" fill="#142639"/>
    <path id="Tracé_49" data-name="Tracé 49" d="M71.685,15.747c-.7,0,.2-.587.353-.587.429,0,.546.2.9.312-.2.275-.663.275-1.249.275" transform="translate(0.234 0.05)" fill="#142639"/>
    <path id="Tracé_50" data-name="Tracé 50" d="M97.055,21.393a1.026,1.026,0,0,0-.392.545,1.285,1.285,0,0,0,.51.039c-.117,1.368-1.872,1.368-3.239,1.368a.744.744,0,0,1-.78-.587c-.546.079-.623.274-.974.507H89.059c-.817.195-2.03.08-1.949-.585h-.47a2.072,2.072,0,0,1-1.091.665c-.858,0-2.808-.976-2.808-1.758a.881.881,0,0,1,.468-.623c-.7-.7-.9-1.328-1.559-1.988a1.084,1.084,0,0,1-.783.389c-.427,0-2.807-1.013-2.807-1.364,0-.587.7-.587,1.169-.587,1.757,0,2.069,1.366,3.4,1.366a.822.822,0,0,0,.781-.315h.7c-.312.9,1.482.667,1.833,1.171H84.382c.232,1.056,1.206.473,1.753.9-.078.078-.272.078-.272.194,0,.545.468.31.622.194a10.579,10.579,0,0,0,2.692.468c2.143,0,2.846-.975,4.876-.975,1.558,0,2.573.078,3.12,1.094a1.173,1.173,0,0,1-.39.076Z" transform="translate(0.256 0.057)" fill="#142639"/>
    <path id="Tracé_51" data-name="Tracé 51" d="M78.84,21.5c.431,0,.272-.895,1.168-.895.7,0,1.64.777,1.64,1.286,0,.66-.235,1.247-.782,1.247a23.965,23.965,0,0,1-2.534-1.053.665.665,0,0,1,.508-.585" transform="translate(0.256 0.067)" fill="#142639"/>
    <path id="Tracé_52" data-name="Tracé 52" d="M81.257,15.745c.426,0,.114.076.508,0v.5c0,.2-.235.39-.585.39-.2,0-2.456-.428-2.456-.428a4.99,4.99,0,0,1,2.533-.467" transform="translate(0.258 0.052)" fill="#142639"/>
    <path id="Tracé_53" data-name="Tracé 53" d="M77.286,15.285c0-.195.273-.35.391-.388-.469-.469-1.287-.7-1.287-1.483,0-.389.508-.547.9-.584.117.31.938.584,1.365.584,0,.937,1.363.076,1.363.9a2.731,2.731,0,0,0,0,.975c-1.363.314-2.729.47-2.729,0" transform="translate(0.25 0.042)" fill="#142639"/>
    <path id="Tracé_54" data-name="Tracé 54" d="M76.394,10.223V11h-.663c-.236-.237-.7-.312-.7-.781.508-.038,1.092,0,1.365,0" transform="translate(0.246 0.033)" fill="#142639"/>
    <path id="Tracé_55" data-name="Tracé 55" d="M87.026,10.039H87.5V9.532l-.2-.273h.391c.548,0,.506.2.506.663,0,.274.47.312.47.586s-.275.35-.275.585c0,.35.587,0,.664,0,.389,0,1.4.468,1.91.5,0,.276.08.431-.036.586-.159.235-.585.157-.9.2-.779.078-1.322,1.25-1.833,1.25s-.506-.351-.622-.781c-.2.195-.275.389-.469.584.234.392.39.468.507.781h-.7v.508c-.352.037-1.052-.47-1.407-.7,0,.7-.348.9-.934.9-.623,0-1.483-.159-1.56-.7a.8.8,0,0,0,.508-.272c-.663,0-1.755-.391-1.755-.976,0-.743,2.418-.664,2.963-.782a5.866,5.866,0,0,0-1.6-.31c-.583,0-.7.31-1.17.31-.39,0-.428-.272-.546-.506-.389.157-.506.311-.819.311-.272,0-.314-.155-.314-.391.392-.155.666-.195.9-.5-1.326,0-2.145-.116-2.262-1.244H79.5a2.665,2.665,0,0,0,1.171.385c.155,0,.351-.312.351-.312-.508-.152-1.714-.43-1.714-.857s.544-.389.894-.389c.545,0,.742.272,1.053.272.234,0,.311-.272.426-.39-.388-.235-.857,0-1.09,0-.156,0-.506-.586-.506-.626a1.719,1.719,0,0,1,1.48-.347h.663c-.467-.237-1.132-.278-1.171-.82a8.78,8.78,0,0,1,2.459.424c.783.316.622,1.446,1.247,1.68.587.234.976-.157,1.561.078s.349.74.7,1.091" transform="translate(0.258 0.022)" fill="#142639"/>
    <path id="Tracé_56" data-name="Tracé 56" d="M89.219,44.057c.194-.159.39-.275.39-.511v-.581c0-.667.2-2.226,1.288-2.343a5.364,5.364,0,0,0,.584,1.094,1.248,1.248,0,0,1,.35-.314c.821,1.016,2.067.625,2.77,1.563.2.273.077.544.275.7.623.468,1.327.272,1.675.742a2.221,2.221,0,0,1-1.287.426H94.212a16.156,16.156,0,0,0-1.483-.974c0,.857-1.287,1.678-1.832,1.444-.118.195-.118.311-.313.311-.468,0-.351-.39-.272-.781a4.843,4.843,0,0,0-1.678,0c.041-.662.508-.585.585-.778" transform="translate(0.29 0.133)" fill="#142639"/>
    <path id="Tracé_57" data-name="Tracé 57" d="M102.247,37.245c0,.506-.973.858-1.44.858a.9.9,0,0,1-.977-.858c0-1.56,2.417-1.287,2.417,0" transform="translate(0.327 0.118)" fill="#142639"/>
    <path id="Tracé_58" data-name="Tracé 58" d="M93.5,45.871c.781-.038.625-.038,1.094.159a4,4,0,0,1-1.95,1.324v-.507c.313-.392.819-.742.857-.976" transform="translate(0.303 0.15)" fill="#142639"/>
    <path id="Tracé_59" data-name="Tracé 59" d="M97.7,27.144c-.782,0-1.442-.2-1.17-.859-.348-.2-.78-.391-.78-.82a.616.616,0,0,1,.662-.587c.86,0,1.134.313,1.951.313,1.051,0,1.949.857,2.652,1.209a.782.782,0,0,1-.7.623c-.507,0-.741-.272-1.172-.272s-.778.392-1.442.392" transform="translate(0.313 0.081)" fill="#142639"/>
    <path id="Tracé_60" data-name="Tracé 60" d="M97.505,47.27c-.235.314-.316.863-.7.863-.079,0-.586-.59-.586-.59,0-.7.9-.738,1.29-.273" transform="translate(0.315 0.154)" fill="#142639"/>
    <path id="Tracé_61" data-name="Tracé 61" d="M103.136,37.049c-.275,0-.508-.078-.508-.311,0-.117.429-.391.508-.391.351,0,.664.469.778.624a1.873,1.873,0,0,1-.778.078" transform="translate(0.336 0.119)" fill="#142639"/>
    <path id="Tracé_62" data-name="Tracé 62" d="M97.577,34.99c-.469,0,.429-.9.9-.9-.116.47-.43.9-.9.9" transform="translate(0.319 0.112)" fill="#142639"/>
    <path id="Tracé_63" data-name="Tracé 63" d="M115.479,41.064c0,.429-.078,1.095-.51,1.095-1.948,0-2.027-2.655-3.9-2.655-.235,0-.742.429-.78.429a.8.8,0,0,0,.78.075v.471c-.235.078-.429.119-.583,0v.585h.5a2.52,2.52,0,0,0,.863,1.484c.738.274,1.011-.2,1.09.469h.661a2.25,2.25,0,0,0,0,.78c0,.274.7.467.7.894a7.025,7.025,0,0,1-.586,1.563A9.777,9.777,0,0,1,110.1,44.69h-.584c.659.822,2.845,1.641,2.845,2.732a.468.468,0,0,1-.39.47c-.195,0-.274-.431-.388-.47-1.133-.546-1.873-.311-2.848-.9-.936-.543-3.276-.506-2.613-1.754a24.353,24.353,0,0,1-3.043-1.947c-.195.271-.43.586-.782.586-.387,0-.31-.276-.661-.276-.468,0-.7.586-1.172.586-.427,0-1.675-.548-1.675-1.092,0-.389,1.015-1.056,1.561-1.056h1.676a4.278,4.278,0,0,0,1.756-.545c-.2-.117-.7-.506-.7-.818,0-.663.7-.313.976-.589.351-.351,1.169-1.2,1.169-1.752,0-1.013-2.5-2.924-3.314-2.924-.508,0-.741.466-1.249.466-.154,0-.311-.388-.311-.466,0-.392.7-.47.934-.507a13.232,13.232,0,0,0-2.883-2.15c-.506,0-1.134,1.486-1.834,1.486-.507,0-.348-.627-.312-.9-1.211-.116-4.175,0-5.927,0a2.213,2.213,0,0,1-1.171-.781H87.279c-.195-.548-.778-.626-.859-1.172a3.951,3.951,0,0,1,1.755.118v-.509a9.432,9.432,0,0,0-2.144-.391s-.584-.7-.584-1.054c0-1.089.194-1.321.782-1.751.309-.234.114-.937.273-1.093A4.366,4.366,0,0,1,89.62,24.8s1.25.39,1.288.39c-.391.819-1.678.9-1.678,2.029,0,.235.116.389.311.389a1.933,1.933,0,0,0,0,.7c0,.31-.078.662.39.662.236,0,.781-.469.781-.779,0-.39-.388-.661-.388-1.051,0-1.486,2.612-1.951,4.173-1.951,1.014,0,1.56,1.362,1.56,2.223,0,.157-.2.78,0,.78.234,0,.388-.39.781-.39.426,0,.545.39.9.39.664,0,.857-.974,1.56-.974a7.717,7.717,0,0,1,2.927.584c.856.624,1.129,1.95,2.416,1.95h.978c.426,0,1.4.116,1.283.779,1.053.351,1.638.975,2.73,1.094v.659h.665c.545,0,.858.393,1.093.941-.548.114-1.055.078-1.366.545a7.691,7.691,0,0,0,1.171.078.687.687,0,0,1,.584.351c-.623.31-.936.31-1.284.894a1.878,1.878,0,0,0,1.091.313c.077.9,1.128,1.287,1.951,1.367.074.7.273,1.364.856,1.364.857,0,1.054-.546,1.365.193a.966.966,0,0,0,.7.2c.742,0,1.053.271,1.053.9,0,.506-.663.66-1.17.66a1.876,1.876,0,0,1,0,.511c0,.114-.118.466-.857.466" transform="translate(0.28 0.081)" fill="#142639"/>
    <path id="Tracé_64" data-name="Tracé 64" d="M99.446,45.172c-.392.313-.509.313-.9,0,.39-.506.428-.234.9,0" transform="translate(0.323 0.147)" fill="#142639"/>
    <path id="Tracé_65" data-name="Tracé 65" d="M92.054,40.428c.509-.233.509.273.782.625-.509-.04-.82-.352-.782-.625" transform="translate(0.301 0.132)" fill="#142639"/>
    <path id="Tracé_66" data-name="Tracé 66" d="M111.39,2.606a1.236,1.236,0,0,1-.7.43l3.122-.895a2.888,2.888,0,0,0,.7.311c.429.115.429.43.664.662.468.469,2.534.273,2.534.975,0,.506-.7.388-.977.586-1.557,1.17-3.469.467-5.535,1.481.39.389,1.947.077,2.926.117-.9.9-3.083,1.443-4.488,1.912-1.561.507-2.456,2.066-3.626,2.925-.546.389-1.4-.078-2.031.117a7.632,7.632,0,0,0-2.454.856h1.091c.078.862-.387.783-1.13.7.468.234.9.389,1.13.937-.817.391-1.091,1.327-1.752,1.792H98.909c.077.276.271.352.271.587,0,1.244-1.634.506-1.634,1.834h.972c.118,0,.585-.039.585.311,0,.661-2.221,1.366-3.119,1.366s-.507-.586-1.288-.586H91.77c-.349,0-.584.389-1.169.389a11.88,11.88,0,0,1-3.705-.779c-.115.194-.274.389-.47.389a.357.357,0,0,1-.389-.311c0-1.562,2.031-.979,2.847-1.562-.468-.352-1.287-.469-1.287-1.171,0-.545.584-.387.975-.387,1.249,0,1.677.661,2.417,1.09h.7c-.545-.543-1.756-1.015-1.756-1.949h-.585a1.067,1.067,0,0,0-.389.27h-.586v-.465c.315-.664.586-1.093,1.171-1.287.975-.31,2.145.04,2.145-1.055,0-1.245-2.652-1.245-2.652-1.948,0-.385.585-.312.973-.312-.427,0-.5-.152-.585-.466a1.436,1.436,0,0,1,.585,0,6.424,6.424,0,0,1,2.068.075c.977.317,1.326,1.444,2.42,1.326-.2-.195-1.443-.975-1.443-1.209,0-.158.2-.273.273-.391h1.949a4.254,4.254,0,0,0,1.873-1.09h-.586a4.378,4.378,0,0,1-2.927.9c-.741,0-.973-.311-1.362-.311-.313,0-.471.387-.782.387-.781,0-1.793-.272-1.561-.779h-.508a1.437,1.437,0,0,1-.857.391,3.5,3.5,0,0,1-2.146-.823,1.9,1.9,0,0,1,1.054-.426c-.741,0-1.522-.041-1.834,0,.43-1.012,1.4-.9,2.421-1.211a2.8,2.8,0,0,0-.783-.078c-.778,0-.82.7-1.559.7a2.437,2.437,0,0,1-.7-.31,2.272,2.272,0,0,1,1.093-.663h-1.17a2.59,2.59,0,0,0-.583.271H83.5c.233-.973,2.771-1.44,3.9-1.44h.859a.339.339,0,0,0,.311-.316c1.249,0,.74-.856,1.561-.856a10.956,10.956,0,0,1,2.613.856c.349-.934.819-1.755,1.949-1.755.664,0,.275.35.782-.077a.9.9,0,0,1,.9-.5h4.488a.532.532,0,0,1,.467-.275c.7,0,.9.467,1.479.467.548,0,.7-.662,1.251-.662.584,0,.821.274,1.169.274h1.092c.934,0,4.291-.114,5.073.661" transform="translate(0.273 0.005)" fill="#142639"/>
    <path id="Tracé_67" data-name="Tracé 67" d="M127.387,35.611c.547-.276.547-.314,1.095-.083.231-1.169.816-1.558,1.169-2.65-1.212-.389-4.057-.584-4.213-1.677.389-.154.347,0,.7,0,.819,0,1.4.586,2.342.586.387,0,.349-.351.387-.586-1.211-.391-1.559-2.223-2.846-2.223-.35,0-.469.663-.976.663-.7,0-1.051-.077-1.051-.663,0-.858.857-.78.857-1.675,0-.587-.623-.624-.976-.665v-.583c-1.092-3.354-3.82-6.749-8.188-6.749h-1.17c-.508,0-.74.511-1.249.511-.351,0-.7-.313-1.171-.313a1.7,1.7,0,0,0-.779.154,1.37,1.37,0,0,0,.388.314c-.233.234-.193.114-.509.114a3.773,3.773,0,0,1-2.532-.933c.35-.238.623-.275.781-.628-.625-.233-1.093-.659-1.561-.659-.858,0-.624.273-1.364,0,.078-.548.858-.782,1.171-.782h.974c.391,0,.507-.038.7-.31h2.223c.391-.275.391-.431.506-.861h-1.56c-.078.2-.195.389-.389.389h-1.365c-.157,0-3.9-1.048-3.9-1.675,0-1.208,1.365-.778,2.223-1.052.7-.233,1.134-.663,1.875-.9,1.05-.352,2.454.234,3.312-.274a2.324,2.324,0,0,0,1.054-2.068c-.7-.077-2.923-.04-2.923-.78,0-.349.583-.545.775-.584a11.453,11.453,0,0,0,3.865-2.144,1.572,1.572,0,0,0,1.012.31c1.365,0,.312-1.794,1.56-1.95a24.948,24.948,0,0,1,3.627-.586c1.091-.27,1.873-.895,2.926-.895.7,0,.9,1.171,1.638,1.171,0-.276-.195-.506-.195-.782l.39-.389c.427.741,1.093.665,1.871.975h.588a2.5,2.5,0,0,1-.313-.861c0-.467.585-.5.973-.5,1.6,0,2.533.895,3.51,1.364h1.755c-.622-.31-2.224-.82-2.224-1.561,0-.583,1.211-.391,1.562-.469-.275-.273-.585-.313-.78-.584a7.139,7.139,0,0,1,3.314-.779,6.287,6.287,0,0,1,2.418.27h.78V1.093a10.123,10.123,0,0,1,1.56,0c1.874,0,3.394-1.093,5.384-1.093h5.653c2.3,0,4.019,1.484,5.853,2.263,1.053.427,2.418.156,3.391.388-.194,1.368-2.847,1.169-3.9,1.56l-8.566.47c.665.506,7.2-.272,7.9,0-.077.31-1.779,1.95-1.466,1.95.975,0,3.3-2.222,4.587-2.222.7,0,.975.582.975,1.169,0,.35-2.52,3-2.638,3.393,1.015-.273,2.99-2.848,3.612-3.314h2.615a4.61,4.61,0,0,0,.9.113,11.85,11.85,0,0,0,1.443-.78h1.873c.116-.465.389-.508.781-.508.506,0,2.34.86,2.34,1.367,0,.467-.742.817-.975.9-1.287.431-2.106,1.56-3.862,1.56.469.235.507.235.819,0,0,1.092-1.05,1.092-1.755,1.247.276.545,0,.117,0,.507,0,.625-1.013.78-1.755.976a2.612,2.612,0,0,1,0,.583c0,.821-.82,1.094-1.559,1.64-.468.352-.428,1.287-.664,1.678.429.193.741,0,1.171,0a2.673,2.673,0,0,1,1.559.737,1.478,1.478,0,0,1-.7.235c.156.626,1.678.429,1.678,1.365s-2.032.587-2.732.587a.743.743,0,0,0-.779.584c0,.664.7.664,1.249.664,0,.858.583,1.092.583,1.677,0,.31-.194.625,0,.856-.625,0-1.248,0-1.248.509,0,.662,1.093.623,1.561.78a2.052,2.052,0,0,1-1.756,1.051.655.655,0,0,0,.389.585c-.271,1.17-1.832.665-2.145,1.484a3.784,3.784,0,0,1-1.171-.9h-.585c.39,1.053,2.146.7,2.146,1.755,0,.468-.116,1.093-.584,1.093a3.11,3.11,0,0,1-2.147-1.757,1.886,1.886,0,0,1-.507,0v.587c1.4,1.4,3.9,2.065,3.9,4.29,0,.428-.625.468-1.052.468-1.833,0-1.445-1.95-3.044-1.95-.194,0-.387.119-.584,0,0,.548.39.667.39.975,0,.351-.663.467-.859.508,0,1.171,3.471,1.015,4.29,1.286a4.269,4.269,0,0,1-1.677.74c-1.286.43-1.676,1.523-2.805,1.875-1.4.466-2.537.349-4.018.974H150.71c-.39.233-.779.349-.779.661l-.977.7c-.738.584-.779,1.364-1.363,1.946-.78.78-2.107.587-2.926,1.17h-.587V39.7c-.583.24-.425.628-.779.979-.818.818-2.923.467-2.923,1.752,0,.12.076.277.076.392-.119.158-.273.275-.273.468,0,.273.468.47.468.9,0,1.324-1.832.895-1.832,2.028a19.436,19.436,0,0,0,0,2.145c-.9.429-.426,2.457-1.483,2.457-.272,0-.389-.157-.469-.391-.468.041-.546.274-.779.274-.977,0-.9-1.758-1.872-1.758-.545,0-1.168.472-1.638.509-.272-.9-.664-.623-1.286-1.091-.236-.159-.158-.7-.274-.78-.781-.625-2.261-2.381-2.261-3.512,0-.507.311-.468.585-.739-.585-.74-.782.233-1.445-.118a5.6,5.6,0,0,1-.389-1.285c-.234-.741-1.287-1.172-1.287-2.227,0-.389.272-.584.391-.971a.642.642,0,0,0-.782,0v-.9a9.123,9.123,0,0,1,1.56-2.143Z" transform="translate(0.343 0)" fill="#142639"/>
    <path id="Tracé_68" data-name="Tracé 68" d="M125.49,34.025c-.352-.04-.779-.9-.779-1.367a.793.793,0,0,1,.857-.781c1.015,0,1.326,1.053,2.341,1.365-.079.663-.9.783-1.559.783Z" transform="translate(0.408 0.104)" fill="#142639"/>
    <path id="Tracé_69" data-name="Tracé 69" d="M164.945,22.086c-.272,0-.5-.39-.5-.585,0-.235.274-.392.389-.507h.7V21.5h.66a3.389,3.389,0,0,1-1.248.585" transform="translate(0.538 0.069)" fill="#142639"/>
    <path id="Tracé_70" data-name="Tracé 70" d="M120.32,69.952c-.2,0-.392-.27-.392-.388,0-.156.7-.7.7-.74V68.59a.342.342,0,0,1-.309-.2c1.088-.544,1.519-2.3,2.1-3.2.311-.508.546-1.171,1.172-1.171.152,0,.271.235.271.389,0,.859-.819,1.287-1.052,1.99v.349c.313-.076.313-.313.587-.313a.84.84,0,0,1,.621.2l-.2.191v.352h.7v.2l.468-.159a1.791,1.791,0,0,0,1.132,0c0,.354-.038.705-.038,1.287a.706.706,0,0,1,.429-.117c-.041.352-.391.431-.391.588,0,.194.273.35.273.623.388,0,.273-.079.508-.234,0,.468.273.429.273.821,0,.466-.235.933-.623.933-.276,0-.353-.312-.353-.468-.115,0-.192-.076-.311-.076-.312,0-.078-.742-.39-1.055-.313.471-.664,1.055-1.13,1.055-.078,0-.236.076-.236,0,0-.389.312-.389.429-.627-.389,0-.9.238-1.093-.154a1.961,1.961,0,0,1-.781.2c-.506,0-.737-.273-1.169-.273-.584,0-.741.231-1.207.231" transform="translate(0.393 0.21)" fill="#142639"/>
    <path id="Tracé_71" data-name="Tracé 71" d="M94.7,61.813c.664,0,1.326.115,1.326.663,0,.035-.157,0-.2,0a1.887,1.887,0,0,1-1.131-.392.327.327,0,0,0,0-.271" transform="translate(0.31 0.202)" fill="#142639"/>
    <path id="Tracé_72" data-name="Tracé 72" d="M123.556,61.138c-.31,0,.14-.384-.31-.584v-.472a10.2,10.2,0,0,1-3.706,1.174.58.58,0,0,1-.386-.158c.778-.429,2.944-.726,3.179-1.468.038-.195-.3-.25-.336-.442-.937.115-2.926-.315-2.926-1.637v-.119A2.976,2.976,0,0,1,117.2,56.5c.2-.114.587-.235.587-.7,0-.389-.352-.7-.273-1.093-.353-.115-1.619-.922-1.285-1.637.405-.885-1.25-1.094-1.365-2.145-.119,0-.508-.351-.666-.509-.273.2-.895.547-.895,1.095a2.962,2.962,0,0,1-2.224,2.028c-.7,0-.819-.859-1.285-.859-.664,0-.938-1.91-1.053-2.731-.155-1.094-2.262-.312-2.262-1.752-1.094-.158-1.324-1.484-2.418-1.484-.509,0-.509.39-1.094.39-1.132,0-1.83-.663-2.927-.663-.584,0-1.169.273-1.169.974,0,.39,1.374.958.117,1.755-.495.314.711,1.174.783,1.756.135,1.154-.966,1.447-1.474,1.641.895,1.523,2.252,2.026,2.252,4.6,0,.7-2.341,2.457-3.119,2.612,1.353.69.817,2.812,1.363,3.472-.155.235-.663.509-.7.934-.466,0-.8.763-1.171.47-.965-.773-2.339-1.988-2.339-3.116,0-1.251.233-2.227-.858-2.93H91.188a20.432,20.432,0,0,0-4.8-2.341c-.312-.114-1.209-.778-1.753-.778-.588,0-.861.585-1.447.585,0-.936-.625-3.121-1.481-3.121-.392,0-.587.313-.974.393.157-.471,0-.628,0-1.758A4.317,4.317,0,0,1,82.1,48.191c.313-.314.975-1.834,1.286-1.951.664-.236,1.835.158,1.835-.781,0-.587-1.494-.633-2.042-.942.352.114-.829-.68,2.343.292.819.252.322-.834.79-.834h.859c.937,0,1.443-.972,2.067-1.442v-.587c-1.324-.308-2.652-.114-3.237-1.286h.7c.507.313,1.015.9,1.755.9.626,0,1.756-.818,1.756-1.285,0-.157-.585-.858-.274-.858.86,0,1.174.781,1.717.781.351,0,.587-.313,1.289-.313-.195-.232-.009-.924.468-.193.257.388,2.263-1.329,2.263-1.835,0-.349-.9-.738-.9-.976,0-.272-.528-.893.7-1.482.156-.352,0-.313,0-.972-1.25,0-.937-.977-2.535-.977-.353-.04-.625-.274-.976-.274-.469,0-.975.313-.975.783,0,.5.584.7.584,1.052,0,.388-.9.388-1.092.778-.31.664-.206,1.186-.77,1.906-.879,1.121-2.038-.7-2.038-1.126,0-.506.665-.39.665-.972A3.281,3.281,0,0,0,86.9,34.226c-1.132,0-.348,1.678-1.559,1.678a1.382,1.382,0,0,0-.9-1.52,1.566,1.566,0,0,1,.389-.47c-.623-.391-1.483,0-1.949-.587.273-.156.974-.426.974-.934,0-.741-1.15-.712-1.172-1.289-.038-1.215-.894-1.989-2.418-2.03-.742-.015-.425.471-.388.861-.468.117-1.091,0-1.091.584,0,.391.311.585.311.976s-.508.351-.508.9c0,1.289,2.653.508,2.653,1.832a7.964,7.964,0,0,1-.312,1.17c.275-.156.508-.232.82-.388.507,1.6-2.069.818-2.069,2.729-1.276.344-.272-.935-.584-1.365a3.511,3.511,0,0,0-1.755-.467c-.7,0-.976.43-.976,1.249-.661-.08-1.092,0-3.315,0-2.106,0-4.564-.743-5.069-2.34-.7.194-3.043.23-3.043,1.091,0,.271.178.421.493.421a4.793,4.793,0,0,0,2.119-.616c.157,1.286-1.83.234-1.83,1.56,0,.271.428,1.167.232,1.167-.78,0-.936-.973-1.6-1.283l-.587-.276h-2.5c-.78,0-1.287.315-2.144.352-1.545.073-1.545-.494-1.545-.613,0-.352,1.192-.207,1.428-.441-1.086-1.508-.892-1.265-3.12-1.093-2.373.189-3.55-1.755-5.927-1.755-.741,0-1.054.509-1.678.509-.429,0-.86-.74-.937-1.053C46.6,32.94,46.6,33.8,45.83,33.8c-.742,0-1.8-1.754-2.029-1.754-.784,0-.51,1.129-1.328,1.129a.793.793,0,0,1-.7-.542,14.9,14.9,0,0,0-2.728.776c-.428.079-1.45.828-1.793.509-1.02-.954-.845.261-1.212.274-2.54.088-.779,1.013-1.13,1.013a8.578,8.578,0,0,1-4.329-1.168c-.067-.04-.547-.392-.547-.511-.273.16-.075.08-.468,0v.042c-.974-.314-1.325-.783-2.458-.783-.7,0-1.13.272-1.834.272-1.207,0-3.624-.192-4.405-.972h-3a9.018,9.018,0,0,1-1.17-.782H14.745c-.352-.119-.471-.234-.9-.39a1,1,0,0,1-.976.507,3.407,3.407,0,0,1,.35-.507c-.5-.155-.7-.584-1.207-.584-.663,0-1.054.855-1.676,1.091-.547.2-.9-.077-1.443.078A10.49,10.49,0,0,0,3.9,35.2H1.755c-.04.118-.584,1.091-.584,1.091,0,.273,1.6.585,2.067.861.39.232.859,1.4,1.169,1.555,1.132.546,1.949.628,2.342,1.876-.468.115-.546,0-1.09,0-.823,0-1.447.351-1.447-.9h-.7C2.575,40.31.974,40.817,0,41.4a1.173,1.173,0,0,0,1.172.626,1.466,1.466,0,0,0-.117.389c0,.351.467.508.508,1.091H3.628c.584-.113.857.274,1.638.274.818,0,1.052-.664,1.676-.664a2.931,2.931,0,0,1,.585,0V43.7c-.27-.158-.195-.2-.585.038.038.116.663.66.663.933,0,.511-2.651,1.564-3,1.564-.821,0-2.925.973-2.925,2.142,0,.626,1.243.82,1.558,1.677-.194,0-.39.118-.587.118a8.02,8.02,0,0,0,2.616,1.793c.156,0,.468-.662.78-.662.352,0,.31.47.31.587v.779c0,.311.157.976.392.976.156,0,.349-.31.585-.31H7.8a1.535,1.535,0,0,1,.04-.587,5.737,5.737,0,0,0,1.87,1.092,3.054,3.054,0,0,1,.274-.7,2.971,2.971,0,0,0,1.051.311c.586,0,.859-.273,1.442-.507h.587c-.936.586-.936,1.755-1.835,2.34-.933.625-2.458,1.286-3.118,2.145-.469.586-1.21.2-1.872.586-.43.236-.781,1.012-1.248,1.286-.663.391-1.4.077-1.874.819,1.639.471,2.419-1.169,3.823-1.4a6.36,6.36,0,0,0,3.12-1.17c.626-.627,1.95-1.015,2.535-1.757.311-.389.469-.781.975-.975.895-.35,1.755-.663,1.755-1.559v-.586c0-1.286,2.575-3.434,3.51-3.434h.469c0,.118-.039.276-.039.391-1.132.351-1.719,1.017-1.719,1.874,0,.2-.156.2.043.466-.079.04-.313.079-.313.315,0,.155.234.275.389.275a7.818,7.818,0,0,0,3.9-2.186,1.177,1.177,0,0,1-.387-.545c.352-.2,1.133-.394,1.6-.59.663,1.366,2.381,1.524,3.668,1.951h2.145c1.169.665,2.5.621,3.509,1.369.468.349,1.014,1.48,1.835,1.48.312,0,.465-.39.584-.7a1.491,1.491,0,0,0,1.171.579c.153-.269.507.082.7.276-.117.2-.39.351-.39.819,0,.235.429.585.585.585.507,0,.314-.467,1.053-.508V55.6c0,.313-.586.352-.586.662,0,.235.158.587.7.587.7,0,1.171,0,1.171.584v.586c0,.428.973,1.171,1.638,1.171.194,0,.194-.041.391-.041,0,.2.234.314.234.548,0,.506-.159,1.561.389,1.717a1.613,1.613,0,0,1,.856.31c.351.353-.077.862.392,1.173a7.007,7.007,0,0,1,1.051.741c.272.894.353,1.949,1.678,1.949.2.781,1.557.27,1.869,1.284.12.39,1.094.468,1.484.857a1.919,1.919,0,0,0,.429.239c.156.39.507.506.507.894a2.136,2.136,0,0,1-.544,1.054,1.238,1.238,0,0,0-1.134-.661c-.152,0-.584.036-.584.271,0,.857.976,1.208.976,2.066,0,1.207-1.025,3.421-.665,4.369.374.983-.039,2.418.39,3.277-.234.154-.585.4-.39.74.667,1.157,1.521,2.885,2.341,3-.2,1.6.9,2.072,1.444,3.435.116.312,0,.74.311.86,1.4.542,3.4,1.36,3.978,2.53H55.89v.274a8.826,8.826,0,0,0,.975,1.832c.235.471.2,1.555.67,1.852a8.025,8.025,0,0,1,1.9,2.1c.34.483-.581.341-.776.341.389.586,1.245.47,1.793,1.015.391.392.7.819,1.132,1.246v1.015c.113.2.156.2.39.351.427.274.807,1.2,1.506,1.2a2.924,2.924,0,0,0,.639.833c.117,0,.274-.39.274-.588,0-.311-.469-.972-.783-.66a4.48,4.48,0,0,1-1.247-2.42c-.273-.819-1.054-1.248-1.327-2.146a3.007,3.007,0,0,0-.817-1.6c-.389-.389-.9-.39-1.174-.974a4.337,4.337,0,0,1-.7-1.989.809.809,0,0,1,.079-.508c.506.508,1.132.471,1.794.78.311.156.233,1.016.584,1.368s.233,1.013.586,1.365c.428.428.818.858,1.327,1.362.113-.115.075-.076.424,0,0,.937,1.213,1.017,1.562,1.717.2.429-.077.822.235,1.131.388.39,1.013.548,1.4.938A9.678,9.678,0,0,1,69,103.026c.077.27.389.391.389.9,0,.426-.389.663-.389,1.09,0,.354.232.782.584.782.116.507,1.327.778,1.8,1.248a1.365,1.365,0,0,0,.428.272c.507.236.779.156,1.287.39.547.275.662.742,1.207.895.431.118.7-.114,1.135.083a9.751,9.751,0,0,0,2.182,1.128,1.761,1.761,0,0,1,.9.079,1.792,1.792,0,0,0,.781.348c.661,0,.778-.779,1.481-.779a1.561,1.561,0,0,1,.856.311h.237c1.052.508,1.209,1.4,2.416,1.991.782.389,1.329.193,2.07.547.508.233.9.66,1.637.66.272,0,.467-.2.742-.2h.235c.235.936.895,1.288,1.518,1.914.2.195.391.274.508.659.2.589-.195,1.137.39,1.525h.39a.294.294,0,0,1,0-.351,7.5,7.5,0,0,1,1.483,1.052c.156.309.156.7.7.82,0,.079.119.232.2.232.273,0,.9-.232,1.169.04.314.312.7,1.052,1.327,1.052.311,0,.509-.2.583-.586-.074-.039-.311-.195-.311-.35,0-.234,1.094-1.014,1.365-1.014.431,0,.547.51.976.705-.077.152-.235.232-.235.39,0,.114.362.222.438.3.1.049.928-.829.976-.929-.622-.464-1.1-1.248-2.2-1.248-.935,0-1.441.781-2.455.781-.664,0-.664-.739-1.093-.934-.623-.312-1.443-.663-1.443-1.524V112.93a4.56,4.56,0,0,0,.275-1.714v-.586c-.7-.156-.94-.82-1.876-.82-1.365,0-2.417.233-3.7.233a.439.439,0,0,1-.468-.425v-.2c.234-.236.7-.394.7-.782v-1.872H88.5v.274a2.141,2.141,0,0,0,.469-1.285c0-.744.66-1.444.66-1.988v-.351a5.468,5.468,0,0,1-.895-.082,1.981,1.981,0,0,0-.782-.114c-1.053,0-2.339.387-2.339,1.52,0,.585-.664,1.09-.821,1.56-.039.155-.231.625-.548.625-.154,0-.31-.235-.738-.235-.781,0-1.4.545-2.147.545-.312,0-.312-.349-.661-.468-1.015-.313-1.015-.974-1.715-1.676a6.316,6.316,0,0,1-.938-1.134c-.153-.35.039-.581-.116-.932-.078-.157-.391-.47-.312-.781v-2.185A6.089,6.089,0,0,0,78,98.5a1.834,1.834,0,0,0-.156-.626l-.024-.094c.034,0,.069.012.1.015,0-.113-.195-.273-.195-.39A2.576,2.576,0,0,1,79.1,94.874c.388-.159.742.117,1.053-.195.469-.468,1.015-1.444,2.145-1.444.428,0,.661.39,1.091.39.236,0,.352-.311.585-.311.781,0,1.718,1.323,2.811.779-.471-.31-.12-.66-.081-1.248-.232.116-.153.116-.547,0a20.89,20.89,0,0,1,2.107-.311c0,.116.159.311.275.311.311,0,.43-.311.974-.311.937,0,1.365.9,2.066.9.353,0,.508-.511.86-.511,1.716,0,1.247,2.382,1.872,3.629.312.623.7.818,1.171,1.443.233.351.2.973.78.973.661,0,.859-.739.859-1.56a4.87,4.87,0,0,0-.47-1.559v-.193c0-1.251-1.092-1.641-1.092-2.926,0-2.834,2.335-3.576,4.164-4.61l-.105-.073c.232-.234.195-.349.662-.506.311-.078.514-.379.975-.468.216-.042.341-.278.456-.432l-.456-.269v-.313c.35,0,.527.034.6-.393a.656.656,0,0,1-.539-.337.522.522,0,0,0,.516-.479v-.389h-.273c-.233-.237,0-.2,0-.585s-.2-1.095-.2-1.367A1.278,1.278,0,0,1,101.4,82c.077.39.427,1.016.427,1.29v.426c0,.081.079.235.158.235a5.168,5.168,0,0,0,.9-1.6c0-.314-.271-.43-.349-.742l.2-.194c.075.075.152.308.269.308.276,0,1.015-1.361,1.092-1.672,0,0-.349-.273-.349-.472a.339.339,0,0,1,.234-.273c.115,0,.235.04.352.04a3.921,3.921,0,0,0,1.482-.194c-.274-.2-.624,0-.976,0h-.389c.78-.508,2.107-.273,2.886-.859.156.153.819,0,1.287-.12v-.271a2.083,2.083,0,0,1-.43.271c-.233,0-.389-.506-.389-.7-.117-.04-.156-.236-.156-.353,0-1.479,1.324-1.911,1.949-2.533.39-.2.43,0,.9,0a1.406,1.406,0,0,0,1.247-.665,1.508,1.508,0,0,1-.175-.3l-.022-.091v-.114a1.312,1.312,0,0,0,.392,0c.235,0,1.209.154,1.561-.077s.351-.742.934-.782c0,.547-.037.583.586.583-.9.078-2.3.7-2.3,1.563,0,.348.545.976.78.976.313,0,1.034-1.048,1.813-1.282.2-.041,2.865-1.058,2.865-1.371,0-.429-1.015-.469-1.246-.469C115.8,72.565,114,71.472,114,70.5c0-.231.314-.545.392-.935-.2,0-.623-.116-.978-.116.237-.311,1.638-.507,1.638-1.288,0-.74-1.206-.584-2.027-.584-1.717,0-2.5,1.207-3.666,1.365.506-1.055,1.325-.7,2.182-1.56.547-.545.159-.9.977-1.171,1.481-.468,2.342-.194,3.821-.194,1.951,0,3.017.638,4.174-.859.565-.729,3.7-.9,3.7-2.145a3.079,3.079,0,0,0-.663-1.872M93.174,75.177c.117-.545.431-.9.431-1.442,0-.47-1.442-1.171-1.758-1.171-.639,0,.013.947-1.41,1.035-.432.025-.42,1.2-.42,1.7v1.246c0,.506-.2,1.676-.782,1.676a.891.891,0,0,1-.895-.78,7.889,7.889,0,0,1,.973-3.864c-.39,0-.546.314-.938.549.078-.78,1.641-1.874,2.5-1.874a5.233,5.233,0,0,0,1.754,0v-.467c-.819,0-1.287-.509-2.221-.509-.428,0-.586.391-1.093.391a.682.682,0,0,1-.664-.472h-.78c.156-.308.428-.426.428-.97-.584.116-1.286.858-1.715.858-.352,0-.391.5-1.052.5-.312,0-.43-.039-.586-.392a2.761,2.761,0,0,0-.7.276h-.583a10.861,10.861,0,0,1,3.041-2.22c.507-.158.584,0,1.015-.2.391-.195.234-.819.626-.819.467,0,.778.7.935.86a1.4,1.4,0,0,0,.038-.548h.311a9.191,9.191,0,0,1,1.949,1.481c.235.469,0,.861.316,1.169.9.9,2.1.7,3.078,1.332h1.015c.468.307,1.052.7,1.052,1.285a.412.412,0,0,1-.39.466c-.469,0-.936-.506-1.092-.662-.157.624-.508,2.5-1.052,2.5-.389-.31-.389-.585-.548-1.2-.389.112-.312.269-.781.269m1.014,3.236c-.39,0-.546-.584-.546-.972.117.2.351.467.585.467.352,0,.391-.235.548-.39a2.051,2.051,0,0,1,1.482-.312c.5,0,.731.27.923.164a8.676,8.676,0,0,1-2.992,1.044m3.207-1.15c.157-.081.3-.156.423-.214-.035-.107-.07-.212-.106-.31.036.1.071.2.106.31-.119.06-.267.132-.423.214m.5-1.19c-.2,0-.2.039-.468.039.043.073.091.173.142.282-.053-.136-.222-.215-.222-.357,0-.2.39-.272.509-.312a16.031,16.031,0,0,1,3.664-.741c-.009,1.466-2.5,1.09-3.626,1.09m-.216.58c-.03-.071-.056-.142-.085-.206.029.065.055.132.085.206m13.8-3.222c.021.055.04.107.066.161-.026-.053-.045-.105-.066-.161m-.422-2.71a2.386,2.386,0,0,0-.181-.416,2.386,2.386,0,0,1,.181.416m.346,2.465c-.014-.063-.028-.123-.041-.188.013.064.027.124.041.188m-.083-.444c-.008-.07-.015-.138-.023-.211.008.072.015.14.023.211m-.047-.491c-.009-.123-.02-.246-.029-.369.009.123.02.246.029.369m-.048-.6c-.008-.092-.021-.189-.035-.283.014.094.027.191.035.283m-.06-.474c-.019-.1-.046-.2-.069-.293.023.1.05.194.069.293" transform="translate(0 0.095)" fill="#142639"/>
    <path id="Tracé_73" data-name="Tracé 73" d="M38.879,59.486c.2,0,.312-.116.312-.389,0-.859-1.054-.977-.935-2.029-.819-.157-1.015-.157-1.015.781.471-.313.234-.118.86,0-.117.194,0,.506,0,.781,0,.038.43.857.779.857" transform="translate(0.122 0.187)" fill="#142639"/>
    <path id="Tracé_74" data-name="Tracé 74" d="M36.084,55.594c-.078.039-.393.118-.393,0-.192-.625,0-.625,0-1.635-.545.311-.192,0-.895,0-.155,0-.467.076-.467.388a1.21,1.21,0,0,0,1.051,1.169,2.009,2.009,0,0,0,.625,1.562c.389-.389,0-.937.078-1.484" transform="translate(0.112 0.177)" fill="#142639"/>
    <path id="Tracé_75" data-name="Tracé 75" d="M45.336,67.453c.624.39,1.988,1.442,2.884,1.442h.35v-.352a8.624,8.624,0,0,0-3.626-2.492c-.273-.078-.623-.545-1.053-.545a1.336,1.336,0,0,0-.545.192h.159s.386.116.584.159a.723.723,0,0,1-.39.348c.156.47,1.246.861,2.028.861-.117.115-.312.115-.39.388" transform="translate(0.142 0.214)" fill="#142639"/>
    <path id="Tracé_76" data-name="Tracé 76" d="M39.5,62.165c0-.195-.194-.271-.194-.466a3.1,3.1,0,0,0,0-.86c-.078.194-.235.507-.507.507-.234,0,.233-.427.233-.469-.349-.038-.545-.273-.9-.273v.314c.158.233.317.7.47.7.236,0,.314.429.626.509,0,.078-.157.2-.157.428,0,.313.235.739.546.739.392,0-.311-.581-.311-.739s.194-.232.194-.389" transform="translate(0.125 0.198)" fill="#142639"/>
    <path id="Tracé_77" data-name="Tracé 77" d="M16.256,54.734h.469V55.2A7.178,7.178,0,0,0,15.2,56.3c-.35-.274-.547-.314-.82-.512V55.32a6.563,6.563,0,0,1,1.872-.586" transform="translate(0.047 0.179)" fill="#142639"/>
    <path id="Tracé_78" data-name="Tracé 78" d="M116.474,67.8c.311,0,.429-.04.547-.232-.819-.468-1.562-1.21-2.769-.935a5.565,5.565,0,0,0,2.222,1.167" transform="translate(0.374 0.218)" fill="#142639"/>
    <path id="Tracé_79" data-name="Tracé 79" d="M1.092,50.926c.156-.349.272-.272.586-.272.469,0,.506.272.583.663H.973C.819,51.2.584,51.08.507,50.926Z" transform="translate(0.002 0.166)" fill="#142639"/>
  </g>
</svg>
