<svg xmlns="http://www.w3.org/2000/svg" width="60" height="46.667" viewBox="0 0 60 46.667">
  <g id="Groupe_71" data-name="Groupe 71" transform="translate(-1482 -1375)">
    <path id="address-card-regular" d="M55,32H5a5,5,0,0,0-5,5V73.667a5,5,0,0,0,5,5H55a5,5,0,0,0,5-5V37A5,5,0,0,0,55,32Zm0,41.667H5V37H55ZM21.667,55.333A6.667,6.667,0,1,0,15,48.667,6.673,6.673,0,0,0,21.667,55.333ZM12.333,68.667H31a2.184,2.184,0,0,0,2.333-2v-2c0-3.312-3.135-6-7-6-1.125,0-1.948.833-4.667.833-2.8,0-3.479-.833-4.667-.833-3.865,0-7,2.688-7,6v2A2.184,2.184,0,0,0,12.333,68.667ZM37.5,62H49.167A.836.836,0,0,0,50,61.167V59.5a.836.836,0,0,0-.833-.833H37.5a.836.836,0,0,0-.833.833v1.667A.836.836,0,0,0,37.5,62Zm0-6.667H49.167A.836.836,0,0,0,50,54.5V52.833A.836.836,0,0,0,49.167,52H37.5a.836.836,0,0,0-.833.833V54.5A.836.836,0,0,0,37.5,55.333Zm0-6.667H49.167A.836.836,0,0,0,50,47.833V46.167a.836.836,0,0,0-.833-.833H37.5a.836.836,0,0,0-.833.833v1.667A.836.836,0,0,0,37.5,48.667Z" transform="translate(1482 1343)" fill="#001021"/>
  </g>
</svg>
