<svg xmlns="http://www.w3.org/2000/svg" width="26" height="26" viewBox="0 0 26 26">
  <g id="Groupe_45" data-name="Groupe 45" transform="translate(-963 -978)">
    <g id="Ellipse_22" data-name="Ellipse 22" transform="translate(963 978)" fill="#fff" stroke="#fff" stroke-width="2">
      <circle cx="13" cy="13" r="13" stroke="none"/>
      <circle cx="13" cy="13" r="12" fill="none"/>
    </g>
    <path id="chevron-right-solid" d="M9.857,8.126,1.833,16.15a.991.991,0,0,1-1.4,0L.29,16.009a.991.991,0,0,1,0-1.4L6.648,8.22.289,1.831a.991.991,0,0,1,0-1.4L.431.29a.991.991,0,0,1,1.4,0L9.857,8.126C8.209,9.651,10.244,7.739,9.857,8.126Z" transform="translate(968 995.554) rotate(-90)" fill="#2aa5b4"/>
  </g>
</svg>
