<svg xmlns="http://www.w3.org/2000/svg" width="66.243" height="53.005" viewBox="0 0 66.243 53.005">
  <path id="cloud-sun-solid" d="M59.536,33.712a5.579,5.579,0,0,0,.083-.58,6.6,6.6,0,0,0-10.154-5.589A11.579,11.579,0,0,0,27.325,32.3c0,.311.072.6.093.9A9.913,9.913,0,0,0,28.153,53H56.307a9.913,9.913,0,0,0,3.229-19.293ZM14.988,31.372a11.59,11.59,0,1,1,18.7-13,14.853,14.853,0,0,1,3.178-.776l3.084-9.2a1.57,1.57,0,0,0-1.987-1.987L28.878,9.44l-4.3-8.57a1.566,1.566,0,0,0-2.8,0L17.492,9.44l-9.1-3.033A1.577,1.577,0,0,0,6.407,8.394L9.44,17.482l-8.57,4.3a1.566,1.566,0,0,0,0,2.8l8.57,4.285L6.407,37.955a1.57,1.57,0,0,0,1.987,1.987l7.877-2.619a13.377,13.377,0,0,1,2.443-3.467,11.413,11.413,0,0,1-3.726-2.484Zm-.5-8.2a8.7,8.7,0,0,0,7.028,8.518,13.279,13.279,0,0,1,2.608-1.211A14.919,14.919,0,0,1,31.1,19.614a8.689,8.689,0,0,0-16.613,3.561Z" fill="#001021"/>
</svg>
